%!PS-Adobe-3.0 EPSF-3.0
%%Creator: GIMP PostScript file plugin V 1,17 by Peter Kirchgessner
%%Title: icone-jsfile.eps
%%CreationDate: Thu Jun 21 10:06:43 2018
%%DocumentData: Clean7Bit
%%LanguageLevel: 2
%%Pages: 1
%%BoundingBox: 14 14 59 50
%%EndComments
%%BeginProlog
% Use own dictionary to avoid conflicts
10 dict begin
%%EndProlog
%%Page: 1 1
% Translate for offset
14.173228346456694 14.173228346456694 translate
% Translate to begin of first scanline
0 35.249059121847061 translate
44.24881889763779 -35.249059121847061 scale
% Image geometry
59 47 8
% Transformation matrix
[ 59 0 0 47 0 0 ]
% Strings to hold RGB-samples per scanline
/rstr 59 string def
/gstr 59 string def
/bstr 59 string def
{currentfile /ASCII85Decode filter /RunLengthDecode filter rstr readstring pop}
{currentfile /ASCII85Decode filter /RunLengthDecode filter gstr readstring pop}
{currentfile /ASCII85Decode filter /RunLengthDecode filter bstr readstring pop}
true 3
%%BeginData:         3616 ASCII Bytes
colorimage
`Z0L~>
`Z]j~>
`[H?~>
`Z0L~>
`Z]j~>
`[H?~>
`Z0L~>
`Z]j~>
`[H?~>
`Z0L~>
`Z]j~>
`[H?~>
`Z0L~>
`Z]j~>
`[H?~>
`Z0L~>
`Z]j~>
`[H?~>
`Z0L~>
`Z]j~>
`[H?~>
`Z0L~>
`Z]j~>
`[H?~>
jW"OA&e59T#n.=\lPtE~>
jWOme78[?)@p2S]lQLc~>
jX:C6GEJuG\>>!TlR78~>
kSsXC&dA77#Qk86!WW3&%iapVJ,~>
kTL!P6ui3Z#^UB1IY<B!9dK-MJ,~>
kU6K`Fk?Wm#j]jnoDejPM(e9FJ,~>
ko9mB!rrH7(E<;m"W.aR!!<o'*.S~>
kog6jHA$H;1aW)D"YWYmKR#lP+b0~>
kpQa?lMok%:b_hr"\+L,s64@g."D~>
l5Tm=!<j22*!6iX!"SK<J,~>
l6-:!Joa(!p`Tba5]_QUn0*;~>
l6ldZqqPa3pa?7oCYJcPn0ie~>
lPp!:!!aG7*!7,b!"/69J,~>
llcKU<.o*9oH=;`C4osa+b0~>
lmMucQiG8eoI'eraT&I6."D~>
ll6*>!"'\9*!7,c!"\W?J,~>
llcI&KOH+r+Tis%KMV.^J,~>
lmMsbs0XEK-j)$;s,?LsJ,~>
o,J#P&./[N&fLfTmi2EK"9980*.S~>
o-"As9j_O;74EY)mi_cZG(VXC+b0~>
o-alBL9SIkG<5<HmjJ8niVl[F."D~>
oc*uO%/Bl'(@E.D(BFa3*.S~>
ocX>^>5<gO2XV^i1P0Q:+b0~>
odBhpV>:,k<ph@;:]&Q2."D~>
p)FDY"98Q:(`O4u!"/'4!Y#,BoGiA~>
p)sbgFG+a-0I8Y_KOO3j!a(+DoHA_~>
p*^8$h>c;\8MXAHs0_2A!h]L8oI,4~>
p)F,B!"JfF!#Y#A!Z:tBoGiA~>
p)sNBKN08p+TX5?llcE[K5U<)J,~>
p*^$?s-P>7-ilgglmMotrmC?dJ,~>
pDa5R!!_F&!XA]Eoc/J~>
pE9SaK5KTk!c!?6oc\h~>
pF$(urlsFN!lt9qodG=~>
pDa5K!#FQ6!YGDJoc/J~>
pE9T$KK%m6!_@u'oc\h~>
pF$)Ts&\2.!e()OodG=~>
pDa5D!#so;!Z(hMoc/J~>
pE9T=Jg97u!]5Qsoc\h~>
pF$*5r@HqV!`Au:odG=~>
pDa2>"5t4$(]Y-?*.S~>
pE9QLH/TnJ/qcsl+b0~>
pF$'Wki!ok7fS59."D~>
pDj25!#t_R!ZMmnpDa5R(*!)i!uV(=)>5&#~>
pEBQi!%%Fa![KWNpE9Sb1aMo@""]+Y/bU?<~>
pF-(A!&F?u!\[M1pF$(t;_Rtq"$ute6M;gX~>
q&BMU#QOuHq]#VP#Q=]($5r^\"r.:A!!*<>q]#\H!!*Z**.S~>
q&okgBS:RTq]Q/&Ck@=n@4M-t#!-dWKS!u#r#l1e>(V<!pE>%~>
q'ZA'`;emOq^;YPbl%M@[64=7#%6-`s80oDr$V[uV#C+EpF(O~>
q&BJB!!sS@*!cuR!t#JB!!3c2*!d&T!!Wl=!WW],*!6u]!"eoFJ,~>
q&oiQKOQ>++UD/&H!s`hKRQDh+UCkqJo=_"I=tYu+TjN=KM)"_J,~>
q'Z?^s0af^-jZCDkH^W#s7:R8-jYe1rR%4Fo)G6W-j*8ns+:"oJ,~>
qA]PJ!"&KA!u1eD)u^f`'a"FC*#oUl!uLqV!u_CE(&JsQ)[??Wq&Fn~>
qB5o4KOjp&"$;0A,lSqn3d?<e+sB:+GVoCC""@r;3r:'&,\hrpq&t7~>
qBuDss1.tS"(D520E*@+?KM3q.O]99k#)++"$4I%?Mc,Q0?=''q'^a~>
qAfM;!#tbS!=&c)*![Af!!sV]$l]$`!ZD+FqA]PU!sSK?J,~>
q]Q%cH[7%8+TcD%,5`Sh-YS0B+Yd+Ir#l+jIVS^&![W,5q&t7~>
q^;Osm-6D'-j%KK/,Ue#28oO(-qg<mr$VV.o>g\U!\ifkq'^a~>
q]#YN!"\lF!<EQ'*!-?F"o'&<#m0oB!Y58FqAb"~>
q]Q#,KMVCe!J"SS+Ts!(KQ/74+TZ,&q&of7KK]/TJ,~>
q^;Mas,6\$!V`kq-j2'Cs4Ajt-ipmLq'Z<&s(2$TJ,~>
q]#YG!#kYQ!<NT'*!7,^!!i<>!=8i'*!-oV%/Lro~>
q]Q#FKIQ^?!IePS+Ts*<KPMe.+TZ,&q&oeoKNe3qJ,~>
q^;NCs#Bg&!V3_q-j26js2QYd-ippNq'Z;;s/#Q?J,~>
q]#VC!r*`:#6Gh@*!Qun)[-3I)Z1QV)?L3>*!$$GqAb"~>
q]PuOI/"idC4.N.+U92]-mWbbBIE^$!\&S4q&oeaJn4^$J,~>
q^;KYmeA13aRV:f-jM2J2_NY\__q??!]onkq'Z:pr42YPJ,~>
q]#VA"o'&>'EACWrYu4_#QPMX)[QKH(&f0T)@$6Wp`';;#PoEj~>
q]PuWF8-m\4bRMurZMRqB7rMn,@uOQ3rU9)-u+Dsp`TZ\D>GE+~>
q^;Khh"W9"AH0V.r[8(1_>e:!/A2#E?2c5S3QM/.pa?1#bk``<~>
q]#VE!V[Q>$ig>;'+G$D&,dIR%0-A6&e"gA%/1_B!=JZCJ,~>
q]Q#HJg0t5#[)h/=[6#5Jku@h#pNB&KP*YTIY:ht+T[+&qB:@~>
q^;NIq^V@h#bq@iUMZObr/:P&#qDACs1r]Mo)GBW-is(LqC$j~>
q]#YK!#PAL!>,A3!!*6<q]#VO#Q=](!>5&G!Z1nJqAb"~>
q]Q#6KJN9F#"X5sKS"5*q]Pu%C]8tfIn9;W!\T.$qB:@~>
q^;Mus%`;:#(61Fs8CSXq^;JRao;;@omHK^!_33IqC$j~>
q]#YP!#"uF!ui'm)tt<R)AX1_*!-cR(&Ao#~>
q]Q##KLPSX"!]HW-2/Pb-T3V%p)sK(KKArQJ,~>
q^;MMs*+/b""ZlA0_Zst2-*-rp*]u]s'Y[OJ,~>
qAfM=!#sW3!<r]&*.S~>
q]Q%dEH!/W+Tip,F<^Q)J,~>
q^;Osf@DP.-j)!JhCJFNJ,~>
qA]PQ!"@U%!Y#,Fq&Fn~>
qB5npJlpbN!`t%6q&t7~>
qBuD=r1Mdm!hTEoq'^a~>
q&BGG!"Rg)!Y,2;p`+e~>
q&oi=KMj&P+TiodKOFQuJ,~>
q'Z?2s,nni-j(r^s0;>IJ,~>
q&BMV$NLAJi>_t;"onfFp`+e~>
q&okc?%d,Li?8=WDM3'[p`Y.~>
q'Z@tX8gU<i@"gtcMuW\paCX~>
pDa>N!WW?/%He3*%1*.;!"KtB*.S~>
pE9]'I"HNR<p*?b<Fg6(JlEuh+b0~>
pF$2VmJZ%ZSEH+@S%R\Xr0Ju/."D~>
p)F2S((UZOj8]2a(\Jbu~>
p)sP`2c"(9jFdPT1\DoA~>
p*^%q>)gAjjSo88;"Z5e~>
`Z0L~>
`Z]j~>
`[H?~>
`Z0L~>
`Z]j~>
`[H?~>
`Z0L~>
`Z]j~>
`[H?~>
`Z0L~>
`Z]j~>
`[H?~>
`Z0L~>
`Z]j~>
`[H?~>
`Z0L~>
`Z]j~>
`[H?~>
`Z0L~>
`Z]j~>
`[H?~>
%%EndData
showpage
%%Trailer
end
%%EOF
