%!PS-Adobe-3.0 EPSF-3.0
%%Creator: GIMP PostScript file plug-in V 1,17 by Peter Kirchgessner
%%Title: scale.eps
%%CreationDate: Fri Nov 23 18:47:52 2018
%%DocumentData: Clean7Bit
%%LanguageLevel: 2
%%Pages: 1
%%BoundingBox: 14 14 41 81
%%EndComments
%%BeginProlog
% Use own dictionary to avoid conflicts
10 dict begin
%%EndProlog
%%Page: 1 1
% Translate for offset
14.173228346456694 14.173228346456694 translate
% Translate to begin of first scanline
0 66.334890925519559 translate
26.447244094488191 -66.334890925519559 scale
% Image geometry
61 153 8
% Transformation matrix
[ 61 0 0 153 0 0 ]
% Strings to hold RGB-samples per scanline
/rstr 61 string def
/gstr 61 string def
/bstr 61 string def
{currentfile /ASCII85Decode filter /RunLengthDecode filter rstr readstring pop}
{currentfile /ASCII85Decode filter /RunLengthDecode filter gstr readstring pop}
{currentfile /ASCII85Decode filter /RunLengthDecode filter bstr readstring pop}
true 3
%%BeginData:        13724 ASCII Bytes
colorimage
qZ"ubqYu'~>
qZ"ubqYu'~>
qZ"ubqYu'~>
r;Qh>NNh'?rj;j+Lj!t>s*t~>
r;Qh>NNh'?rj;j+Lj!t>s*t~>
r;Qh>NN_!>rj;j*LN[k=s*t~>
rr3%@K?qs:"4NW^GlI_n~>
rr3%@K?qs:"4NW^GlI_n~>
rr3%@K?hm8"4NW^GlI_n~>
s8N.AMW`=V"nB9PH2mnp~>
s8N.AMW`=V"nB9PH2mnp~>
s8N.AM<E4U"nB6NGlReo~>
s8N+GhotWn^NokZJ,~>
s8N+GhotWn^NokZJ,~>
s8N+FhotTm^NfeYJ,~>
!rm>Gb45V*G5m'~>
!rm>Gb45V*G5m'~>
!rm>Gb4,P)FoQs~>
!rmE'b4,PeFoQs~>
!rmE'b4,PeFoQs~>
!rmB%b4,PeFoQs~>
!HX.>nH"SiJ,~>
!HX.>nH"SiJ,~>
!HX+=n,\GgJ,~>
!HY(5n,_sjk+r*jmI'HEVK77~>
!HY(5n,_slk,/6nmI'HEVK77~>
!HY%4n,_slk,8<omI'HEVK77~>
!HYLAn,^)Hk2ZQl[dNVcY]G<~>
!HYLAn,g5Ljlb\*e[Y&:!O-Wq~>
!HYLAmfC&Jk2cWo\*i\cY]G<~>
!HYLAn,f$IJ`pqPI.rimn,]b7J,~>
!HYLAn,f-MRcoY2QM6^5n,]b7J,~>
!HYLAmfK$L^A5,9[ILU*]D%WZmfBY6J,~>
!HYLAmf]!IA5uY$<qo_t?hfcOmfBY6J,~>
!HYLAmfJsJL%p#bHieloPj[u@Y]G<~>
!HYLAmfK!LZMU`tXn]%#YP=CNmfBY6J,~>
!HYLAmf]!IAPc4o;>F)k?hfcOmfBY6J,~>
!HYLAmfJsJL@TH\FTR0iPj[u@Y]G<~>
!HYI@mK8sLZ_[>lpSRne!jMHbmd:+ZF+=~>
!HYLAmKAmHP'qcGIf=`sNqeb)mK'P5J,~>
!HYLAmK/jIX7MeWS,A]VW;)VFmK'P5J,~>
!HYI@mK/mKbilkEb4q7imK'M4J,~>
!HYLAmK&[Ek5PJWOm_W<Y]G<~>
!HYLAmK&dHk5PJWPj[r?Y]G<~>
!HYI@m/`[Hk5PJWPj[o>YB,3~>
!HYLAmK&[Ek5PJWOm_W<YB,3~>
!HYLAmK&dHk5PJWPj[r?YB,3~>
!HYI@m/`[Hk5PJWPj[o>YB,3~>
!HYLAm/`OCk5GDVORDK:YB,3~>
!HYLAm/`XFk5GDVPO@f=YB,3~>
!HYI@m/`[Gk5GDVPj[o>Y&f*~>
!HYI@m/`OBk5>>TORDK:Y&f*~>
!HYI@m/`XFk5>>TPO@f=Y&f*~>
!HYI@liEOEk558SPj[l=X`K!~>
!HYI@liEF@k5#,OORDH9Y&f*~>
!HYI@liEODk5#,PPO@c<Y&f*~>
!HYI@liEODk5#,PPj[l=X`K!~>
!HYI@liEF?k4\oKORMN;l`G5Y~>
!HYI@liEOCk4euMPOIi>l`G5Y~>
!HYF?lN*FAk4\oKPOIf=lE,,X~>
!HYI@liEF>k4JcHORMN;l)f#W~>
!HYI@liEOBk4SiJPOIi>l)f#W~>
!HYF?lN*F@k4A]GPOIf=kcJoV~>
!HYF?lN*:;k48WEO72B9kcJoV~>
!HYF?lN*C?k4A]GP4.]<kcJoV~>
!HYF?lN*F?k4&KCPORl?lK>9jJ,~>
!HYF?lN*::k3rEAO7;H;l0,6jJ,~>
!HYF?lN*C>k4&KCP47c>l0,6jJ,~>
!HYC>l2d:<k3i?@PORi>ki]'hJ,~>
!ctL/qs+9JlK7I7n;m,*"R5.6X`K!~>
!ctL/qs+9MlfRX:nWNG."R5.6X`K!~>
!HYC>l2d:;k3N-;PO[o@ki_-2F+=~>
!ctL.qs"3Il/q:4muR&)!9sLH!NgEn~>
!ctL.qs"3KlK7F6n<3A-!9sLH!NgEn~>
!ctL-qrn*Jjllg6P4Ii;kl0`GX`K!~>
!ctL-qs"0Hjlca5O8/#>l2'TEX`K!~>
!ctL-qs"3Kl/q73mumJ2ros:C!NgEn~>
!ctL,qrn-KkN:n-m?78/rTO.A!NgEn~>
"*:U.kksZGPiq2j!UPjAl1aBBX`K!~>
"*:U.kksZFQf[E3mZI;/pZMX[F+=~>
"*:U-kPXNEQfdGj!UQ!EkkF6@X`K!~>
!HYCBkl'`HPih,g!UGd@l1aBBX`K!~>
!HYCBkl'`HQfmMn!UZ$El1aBBX`K!~>
!HYCBkPaTFQf[Ag!U>jCkkF6@X`K!~>
!HYC>kQ-q0k2?@+Npc*3X`K!~>
!HYC>kQ."3k2QL/Om_E6X`K!~>
!HYC>k5gq1k2$.'Om_B5X`K!~>
!HYC>kQ-q/k2$.'Npc*3X`K!~>
!HYC>kQ."2k2?@,Om_E6X`K!~>
!HYC>k5gq0k1]q#Om_B5X`K!~>
!HYC>kQ-q-k1g"$Npc*3X`K!~>
!HYC>kQ."1k2-4(Om_E6X`K!~>
!HYC>k5gq/k1B^tOm_B5X`K!~>
!HYC>kQ-q,k1KduNpc*3X`K!~>
!HYC>kQ."0k1p(%Om_E6X`K!~>
!HYC>k5gq-k10RpOm_B5X`K!~>
!HYC>kQ-q,k19XrO7)34X`K!~>
!HYC>kQ.%1k1]q#Om_E6X`K!~>
!HYC>k5gq-k0j@lP4%K6X`K!~>
!HYC>kQ.m1k1Tj]X7#0PX`K!~>
!HYC>kQ.s5k1g!aXmYBRX`K!~>
!HYC>k5qp4g?@2kg<Qhgk5h]+J,~>
!HYC>kQKh?LOjsAIKY.OLSNbpkQ.f,J,~>
!HYC>kQKhAM1^EHJHURWM59%skQ.f,J,~>
!HYC>k60\?M1gKIJHURXM59"rk5h]+J,~>
!HYC<kQ0c'lJM^%jQu(2X`K!~>
!HYC<kQ0c'lJM^%jQu(2X`K!~>
!HYC<k5jW$lJDX#j6Yq0X`K!~>
!HYBakQ.f,J,~>
!HYBakQ.f,J,~>
!HYBak5h]+J,~>
!HYBakQ.f,J,~>
!HYBakQ.f,J,~>
!HYBak5h]+J,~>
!HYBakQ.f,J,~>
!HYBakQ.f,J,~>
!HYBak5h]+J,~>
!HYBakQ.f,J,~>
!HYBakQ.f,J,~>
!HYBak5h]+J,~>
!HYBakQ.f,J,~>
!HYBakQ.f,J,~>
!HYBak5h]+J,~>
!HYBakQ.f,J,~>
!HYBakQ.f,J,~>
!HYBak5h]+J,~>
!HYBakQ.f,J,~>
!HYBakQ.f,J,~>
!HYBak5h]+J,~>
!HYCAkg8#]kQ.f,J,~>
!HYCAkg8#]kQ.f,J,~>
!HYCAkKqo\k5h]+J,~>
!HYCAkg8#]kQ.f,J,~>
!HYCAkg8#]kQ.f,J,~>
!HYCAkKqo\k5h]+J,~>
!HYCAki:@cK)aO&kQ.f,J,~>
!HYCAki:@cK)aO&kQ.f,J,~>
!HYCAkMt7bK)aO&k5h]+J,~>
!HYCAki:=rK(?5Ls4Q*(kQ.f,J,~>
!HYCAki:=rK(?5Ls4Q*(kQ.f,J,~>
!HYCAkMt4qK(?5Ls4Q*(k5h]+J,~>
!HYCAki:=rK(?5Ls4Q*(kQ.f,J,~>
!HYCAki:=rK(?5Ls4Q*(kQ.f,J,~>
!HYCAkMt4qK(?5Ls4Q*(k5h]+J,~>
!HYCAki:=rK(?5Ls4Q*(kQ.f,J,~>
!HYCAki:=rK(?5Ls4Q*(kQ.f,J,~>
!HYCAkMt4qK(?5Ls4Q*(k5h]+J,~>
!HYCAki:=rK(?5Ls4Q*(kQ.f,J,~>
!HYCAki:=rK(?5Ls4Q*(kQ.f,J,~>
!HYCAkMt4qK(?5Ls4Q*(k5h]+J,~>
!HYCAki:=rK(?5Ls4Q*(kQ.f,J,~>
!HYCAki:=rK(?5Ls4Q*(kQ.f,J,~>
!HYCAkMt4qK(?5Ls4Q*(k5h]+J,~>
!HYCAki:=rK(?5Ls4Q*(kQ.f,J,~>
!HYCAki:=rK(?5Ls4Q*(kQ.f,J,~>
!HYCAkMt4qK(?5Ls4Q*(k5h]+J,~>
!HYCAki:=rK(?5Ls4Q*(kQ.f,J,~>
!HYCAki:=rK(?5Ls4Q*(kQ.f,J,~>
!HYCAkMt4qK(?5Ls4Q*(k5h]+J,~>
!HYCAki:=rK(?5Ls4Q*(kQ.f,J,~>
!HYCAki:=rK(?5Ls4Q*(kQ.f,J,~>
!HYCAkMt4qK(?5Ls4Q*(k5h]+J,~>
!HYCAki:=rK(?5Ls4Q*(kQ.f,J,~>
!HYCAki:=rK(?5Ls4Q*(kQ.f,J,~>
!HYCAkMt4qK(?5Ls4Q*(k5h]+J,~>
!HYCAki:=rK(?5Ls4Q*(kQ.f,J,~>
!HYCAki:=rK(?5Ls4Q*(kQ.f,J,~>
!HYCAkMt4qK(?5Ls4Q*(k5h]+J,~>
!HYCAki:=rK(?5Ls4Q*(kQ.f,J,~>
!HYCAki:=rK(?5Ls4Q*(kQ.f,J,~>
!HYCAkMt4qK(?5Ls4Q*(k5h]+J,~>
!HYCAki:=rK(?5Ls4Q*(kQ.f,J,~>
!HYCAki:=rK(?5Ls4Q*(kQ.f,J,~>
!HYCAkMt4qK(?5Ls4Q*(k5h]+J,~>
!HYCAki:=rK(?5Ls4Q*(kQ.f,J,~>
!HYCAki:=rK(?5Ls4Q*(kQ.f,J,~>
!HYCAkMt4qK(?5Ls4Q*(k5h]+J,~>
!HYCAki:=rK(?5Ls4Q*(kQ.f,J,~>
!HYCAki:=rK(?5Ls4Q*(kQ.f,J,~>
!HYCAkMt4qK(?5Ls4Q*(k5h]+J,~>
!HYCAki:=rK(?5Ls4Q*(kQ.f,J,~>
!HYCAki:=rK(?5Ls4Q*(kQ.f,J,~>
!HYCAkMt4qK(?5Ls4Q*(k5h]+J,~>
!HYCAki:=rK(?5Ls4Q*(kQ.f,J,~>
!HYCAki:=rK(?5Ls4Q*(kQ.f,J,~>
!HYCAkMt4qK(?5Ls4Q*(k5h]+J,~>
!HYCAki:=rK(?5Ls4Q*(kQ.f,J,~>
!HYCAki:=rK(?5Ls4Q*(kQ.f,J,~>
!HYCAkMt4qK(?5Ls4Q*(k5h]+J,~>
!HYCAki:=rK(?5Ls4Q*(kQ.f,J,~>
!HYCAki:=rK(?5Ls4Q*(kQ.f,J,~>
!HYCAkMt4qK(?5Ls4Q*(k5h]+J,~>
!HYCAki:=rK(?5Ls4Q*(kQ.f,J,~>
!HYCAki:=rK(?5Ls4Q*(kQ.f,J,~>
!HYCAkMt4qK(?5Ls4Q*(k5h]+J,~>
!HYCAki:=rK(?5Ls4Q*(kQ.f,J,~>
!HYCAki:=rK(?5Ls4Q*(kQ.f,J,~>
!HYCAkMt4qK(?5Ls4Q*(k5h]+J,~>
!HYCAki:=rK(?5Ls4Q*(kQ.f,J,~>
!HYCAki:=rK(?5Ls4Q*(kQ.f,J,~>
!HYCAkMt4qK(?5Ls4Q*(k5h]+J,~>
!HYCAki:=rK(?5Ls4Q*(kQ.f,J,~>
!HYCAki:=rK(?5Ls4Q*(kQ.f,J,~>
!HYCAkMt4qK(?5Ls4Q*(k5h]+J,~>
!HYCAki:=rK(?5Ls4Q*(kQ.f,J,~>
!HYCAki:=rK(?5Ls4Q*(kQ.f,J,~>
!HYCAkMt4qK(?5Ls4Q*(k5h]+J,~>
!HYCAki:=rK(?5Ls4Q*(kQ.f,J,~>
!HYCAki:=rK(?5Ls4Q*(kQ.f,J,~>
!HYCAkMt4qK(?5Ls4Q*(k5h]+J,~>
!HYCAki:=rK(?5Ls4Q*(kQ.f,J,~>
!HYCAki:=rK(?5Ls4Q*(kQ.f,J,~>
!HYCAkMt4qK(?5Ls4Q*(k5h]+J,~>
!HYCAki:=rK(?5Ls4Q*(kQ.f,J,~>
!HYCAki:=rK(?5Ls4Q*(kQ.f,J,~>
!HYCAkMt4qK(?5Ls4Q*(k5h]+J,~>
!HYCAki:=rK(?5Ls4Q*(kQ.f,J,~>
!HYCAki:=rK(?5Ls4Q*(kQ.f,J,~>
!HYCAkMt4qK(?5Ls4Q*(k5h]+J,~>
!HYCAki:=rK(?5Ls4Q*(kQ.f,J,~>
!HYCAki:=rK(?5Ls4Q*(kQ.f,J,~>
!HYCAkMt4qK(?5Ls4Q*(k5h]+J,~>
!HYCAki:=rK(?5Ls4Q*(kQ.f,J,~>
!HYCAki:=rK(?5Ls4Q*(kQ.f,J,~>
!HYCAkMt4qK(?5Ls4Q*(k5h]+J,~>
!HYCAki:=rK(?5Ls4Q*(kQ.f,J,~>
!HYCAki:=rK(?5Ls4Q*(kQ.f,J,~>
!HYCAkMt4qK(?5Ls4Q*(k5h]+J,~>
!HYCAki:=rK(?5Ls4Q*(kQ.f,J,~>
!HYCAki:=rK(?5Ls4Q*(kQ.f,J,~>
!HYCAkMt4qK(?5Ls4Q*(k5h]+J,~>
!HYCAki:=rK(?5Ls4Q*(kQ.f,J,~>
!HYCAki:=rK(?5Ls4Q*(kQ.f,J,~>
!HYCAkMt4qK(?5Ls4Q*(k5h]+J,~>
!HYCAki:=rK(?5Ls4Q*(kQ.f,J,~>
!HYCAki:=rK(?5Ls4Q*(kQ.f,J,~>
!HYCAkMt4qK(?5Ls4Q*(k5h]+J,~>
!HYCAki:=rK(?5Ls4Q*(kQ.f,J,~>
!HYCAki:=rK(?5Ls4Q*(kQ.f,J,~>
!HYCAkMt4qK(?5Ls4Q*(k5h]+J,~>
!HYCAki:=rK(8m@g&:+8X`K!~>
!HYCAki:=rK(8m@g&:+8X`K!~>
!HYCAkMt4qK(8m@g&:(7X`K!~>
!HYCAki:=rK(K!EK)aNWrTF9aF+=~>
!HYCAki:=rK(K!EK)aNWrTF9aF+=~>
!HYCAkMt4qK(K!EK)aNWrT=3`F+=~>
!HYCAki:=tK)blEg&HX*s4Q*(kQ.f,J,~>
!HYCAki:=tK)blEg&HX*s4Q*(kQ.f,J,~>
!HYCAkMt4sK)blEg&HX*s4Q*(k5h]+J,~>
!HYCAki:=tK)blEg&HX*s4Q*(kQ.f,J,~>
!HYCAki:=tK)blEg&HX*s4Q*(kQ.f,J,~>
!HYCAkMt4sK)blEg&HX*s4Q*(k5h]+J,~>
!HYCAki:=tK)blEg&HX*s4Q*(kQ.f,J,~>
!HYCAki:=tK)blEg&HX*s4Q*(kQ.f,J,~>
!HYCAkMt4sK)blEg&HX*s4Q*(k5h]+J,~>
!HYCAki:=tK)blEg&HX*s4Q*(kQ.f,J,~>
!HYCAki:=tK)blEg&HX*s4Q*(kQ.f,J,~>
!HYCAkMt4sK)blEg&HX*s4Q*(k5h]+J,~>
!HYCAki:=tK)blEg&HX*s4Q*(kQ.f,J,~>
!HYCAki:=tK)blEg&HX*s4Q*(kQ.f,J,~>
!HYCAkMt4sK)blEg&HX*s4Q*(k5h]+J,~>
!HYCAki:=tK)blEg&HX*s4Q*(kQ.f,J,~>
!HYCAki:=tK)blEg&HX*s4Q*(kQ.f,J,~>
!HYCAkMt4sK)blEg&HX*s4Q*(k5h]+J,~>
!HYCAki:=tK)blEg&HX*s4Q*(kQ.f,J,~>
!HYCAki:=tK)blEg&HX*s4Q*(kQ.f,J,~>
!HYCAkMt4sK)blEg&HX*s4Q*(k5h]+J,~>
!HYCAki:=tK)blEg&HX*s4Q*(kQ.f,J,~>
!HYCAki:=tK)blEg&HX*s4Q*(kQ.f,J,~>
!HYCAkMt4sK)blEg&HX*s4Q*(k5h]+J,~>
!HYCAki:=tK)blEg&HX*s4Q*(kQ.f,J,~>
!HYCAki:=tK)blEg&HX*s4Q*(kQ.f,J,~>
!HYCAkMt4sK)blEg&HX*s4Q*(k5h]+J,~>
!HYCAkk*O/V??et#SkkBfr$A+,*`)[!eUIPp=]It!rps,rTF9aF+=~>
!HYCAkk*O.?i9s1=kVK\GSg`L^&H[dK)blEg&HX*s4Q*(kQ.f,J,~>
!HYCAkOmL/eJnJf#m-aPfuZqr&nKPlf`Hd*s7Y.GJcbu*g&:(7X`K!~>
!HYCAkk*OAV@9Q1YdE'9_@g:fGmUY,fn08(p=]It!rps,rTF9aF+=~>
!HYCAkk*O/?U4Up%`-iOM@G`U6RpU=fn08(p=]It!rps,rTF9aF+=~>
!HYCAkOmL<eJrq?Yd)O-f0h9pTc%\Gf`Hd*s7Y.GJcbu*g&:(7X`K!~>
!HYCAkk*O0V@M)QfaDpEeCiG9=P;AZs8VfGs+1=Pg"H>f!NgEn~>
!HYCAkk*O/?V^OP%+[(@g"F7MT%VeKs8VfGs+1=Pg"H>f!NgEn~>
!HYCAkOmL0eJsqRfaPCrW7fjU(Xh!iK)blEg&HX*s4Q*(k5h]+J,~>
!HYCAkk*O7V?@G:25o3]7o'':#&c$Cfn08(oR[/Eg"H>f!NgEn~>
!HYCAkk*OA?OR2P;p!_<$C9AuegYUlfn08(oR[/Eg"H>f!NgEn~>
!HYCAkOmLBeJf&'++2\nNXjLjfsD$ng"CuWs7CmEs4Q*(k5h]+J,~>
!HYCAkk*O7\U13H64LKW2.?L;"G.QBfn/hq"+pR+g&:+8X`K!~>
!HYCAkk*O?P)cT%*&lH`#cQG0fK3Emfn/hq"+pR+g&:+8X`K!~>
!HYCAkOmL@eodO_D?kOAHQCYifu45mg"CuKrr[lQg"H>e!NgEn~>
!HYCAkj[7/dNE8U1h$C:#(dcDfn08(p=]It!rps,rTF9aF+=~>
!HYCAkj[79W!9E>#cQG0fK3Emfn08(p=]It!rps,rTF9aF+=~>
!HYCAkO@.8@O9TP*nArs`<`9mfn08(p=]It!rps,rT=3`F+=~>
!HYCAkjR1-6rM].:B&oND_'DlK)blEg&HX*s4Q*(kQ.f,J,~>
!HYCAkj[79cNora$C9AuegYUlfn08(p=]It!rps,rTF9aF+=~>
!HYCAkO@.8N"=Bt%as%`Zj=+nfn08(p=]It!rps,rT=3`F+=~>
!HYCAkj[79dNE8WFW],df0!0gfn08(p=]It!rps,rTF9aF+=~>
!HYCAkj[79W!9EU04W\g_[<!gfn08(p=]It!rps,rTF9aF+=~>
!HYCAkO@.8@O0O8#H6>/Jeukgfn08(p=]It!rps,rT=3`F+=~>
!HYCAkk*OAG_2id64LEW_@g=hH3pb-fn08(p=]It!rps,rTF9aF+=~>
!HYCAkk3UCeQJ-;N?'q.fng0%[6uLog"CuWs7Y.GJcbu*g&:+8X`K!~>
!HYCAkOmL<Ve_m(D?kOAf0h9qU)@eHf`Hd*s7Y.GJcbu*g&:(7X`K!~>
!HYCAkk*O3JKtL-3N2r1"K*aS+d;oY!eUIPp=]It!rps,rTF9aF+=~>
!HYCAkk3U=ekR"a'NW?/g":Kb#X#d!f`Hd*s7Y.GJcbu*g&:+8X`K!~>
!HYCAkOmL<Z8E*p,C\:ufuZnp&7a8if`Hd*s7Y.GJcbu*g&:(7X`K!~>
!HYCAki:=tK)blEg&HX*s4Q*(kQ.f,J,~>
!HYCAki:=tK)blEg&HX*s4Q*(kQ.f,J,~>
!HYCAkMt4sK)blEg&HX*s4Q*(k5h]+J,~>
!HYCAki:=tK)blEg&HX*s4Q*(kQ.f,J,~>
!HYCAki:=tK)blEg&HX*s4Q*(kQ.f,J,~>
!HYCAkMt4sK)blEg&HX*s4Q*(k5h]+J,~>
!HYCAki:=tK)blEg&HX*s4Q*(kQ.f,J,~>
!HYCAki:=tK)blEg&HX*s4Q*(kQ.f,J,~>
!HYCAkMt4sK)blEg&HX*s4Q*(k5h]+J,~>
!HYCAki:=tK)blEg&HX*s4Q*(kQ.f,J,~>
!HYCAki:=tK)blEg&HX*s4Q*(kQ.f,J,~>
!HYCAkMt4sK)blEg&HX*s4Q*(k5h]+J,~>
!HYCAki:=tK)blEg&HX*s4Q*(kQ.f,J,~>
!HYCAki:=tK)blEg&HX*s4Q*(kQ.f,J,~>
!HYCAkMt4sK)blEg&HX*s4Q*(k5h]+J,~>
!HYCAki:=tK)blEg&HX*s4Q*(kQ.f,J,~>
!HYCAki:=tK)blEg&HX*s4Q*(kQ.f,J,~>
!HYCAkMt4sK)blEg&HX*s4Q*(k5h]+J,~>
!HYCAki:=tK)blEg&HX*s4Q*(kQ.f,J,~>
!HYCAki:=tK)blEg&HX*s4Q*(kQ.f,J,~>
!HYCAkMt4sK)blEg&HX*s4Q*(k5h]+J,~>
!HYCAki:=tK)blCJcbu*g&:+8X`K!~>
!HYCAki:=tK)blCJcbu*g&:+8X`K!~>
!HYCAkMt4sK)blCJcbu*g&:(7X`K!~>
!HYCAki:=sK)bFo!rps,rTF9aF+=~>
!HYCAki:=sK)bFo!rps,rTF9aF+=~>
!HYCAkMt4rK)bFo!rps,rT=3`F+=~>
!HYCAki:=rK(?5Ls4Q*(kQ.f,J,~>
!HYCAki:=rK(?5Ls4Q*(kQ.f,J,~>
!HYCAkMt4qK(?5Ls4Q*(k5h]+J,~>
!HYCAki:=rK(?5Ls4Q*(kQ.f,J,~>
!HYCAki:=rK(?5Ls4Q*(kQ.f,J,~>
!HYCAkMt4qK(?5Ls4Q*(k5h]+J,~>
!HYCAki:=rK(?5Ls4Q*(kQ.f,J,~>
!HYCAki:=rK(?5Ls4Q*(kQ.f,J,~>
!HYCAkMt4qK(?5Ls4Q*(k5h]+J,~>
!HYCAki:=rK(?5Ls4Q*(kQ.f,J,~>
!HYCAki:=rK(?5Ls4Q*(kQ.f,J,~>
!HYCAkMt4qK(?5Ls4Q*(k5h]+J,~>
!HYCAki:=rK(?5Ls4Q*(kQ.f,J,~>
!HYCAki:=rK(?5Ls4Q*(kQ.f,J,~>
!HYCAkMt4qK(?5Ls4Q*(k5h]+J,~>
!HYCAki:=rK(?5Ls4Q*(kQ.f,J,~>
!HYCAki:=rK(?5Ls4Q*(kQ.f,J,~>
!HYCAkMt4qK(?5Ls4Q*(k5h]+J,~>
!HYCAki:=rK(?5Ls4Q*(kQ.f,J,~>
!HYCAki:=rK(?5Ls4Q*(kQ.f,J,~>
!HYCAkMt4qK(?5Ls4Q*(k5h]+J,~>
!HYCAki:=rK(?5Ls4Q*(kQ.f,J,~>
!HYCAki:=rK(?5Ls4Q*(kQ.f,J,~>
!HYCAkMt4qK(?5Ls4Q*(k5h]+J,~>
!HYCAki:=rK(?5Ls4Q*(kQ.f,J,~>
!HYCAki:=rK(?5Ls4Q*(kQ.f,J,~>
!HYCAkMt4qK(?5Ls4Q*(k5h]+J,~>
!HYCAki:=rK(?5Ls4Q*(kQ.f,J,~>
!HYCAki:=rK(?5Ls4Q*(kQ.f,J,~>
!HYCAkMt4qK(?5Ls4Q*(k5h]+J,~>
!HYCAki:=rK(?5Ls4Q*(kQ.f,J,~>
!HYCAki:=rK(?5Ls4Q*(kQ.f,J,~>
!HYCAkMt4qK(?5Ls4Q*(k5h]+J,~>
!HYCAki:=rK(?5Ls4Q*(kQ.f,J,~>
!HYCAki:=rK(?5Ls4Q*(kQ.f,J,~>
!HYCAkMt4qK(?5Ls4Q*(k5h]+J,~>
!HYCAki:=rK(?5Ls4Q*(kQ.f,J,~>
!HYCAki:=rK(?5Ls4Q*(kQ.f,J,~>
!HYCAkMt4qK(?5Ls4Q*(k5h]+J,~>
!HYCAki:=rK(?5Ls4Q*(kQ.f,J,~>
!HYCAki:=rK(?5Ls4Q*(kQ.f,J,~>
!HYCAkMt4qK(?5Ls4Q*(k5h]+J,~>
!HYCAki:=rK(?5Ls4Q*(kQ.f,J,~>
!HYCAki:=rK(?5Ls4Q*(kQ.f,J,~>
!HYCAkMt4qK(?5Ls4Q*(k5h]+J,~>
!HYCAki:=rK(?5Ls4Q*(kQ.f,J,~>
!HYCAki:=rK(?5Ls4Q*(kQ.f,J,~>
!HYCAkMt4qK(?5Ls4Q*(k5h]+J,~>
!HYCAki:=rK(?5Ls4Q*(kQ.f,J,~>
!HYCAki:=rK(?5Ls4Q*(kQ.f,J,~>
!HYCAkMt4qK(?5Ls4Q*(k5h]+J,~>
!HYCAki:=rK(?5Ls4Q*(kQ.f,J,~>
!HYCAki:=rK(?5Ls4Q*(kQ.f,J,~>
!HYCAkMt4qK(?5Ls4Q*(k5h]+J,~>
!HYCAki:=rK(?5Ls4Q*(kQ.f,J,~>
!HYCAki:=rK(?5Ls4Q*(kQ.f,J,~>
!HYCAkMt4qK(?5Ls4Q*(k5h]+J,~>
!HYCAki:=rK(?5Ls4Q*(kQ.f,J,~>
!HYCAki:=rK(?5Ls4Q*(kQ.f,J,~>
!HYCAkMt4qK(?5Ls4Q*(k5h]+J,~>
!HYCAki:=rK(?5Ls4Q*(kQ.f,J,~>
!HYCAki:=rK(?5Ls4Q*(kQ.f,J,~>
!HYCAkMt4qK(?5Ls4Q*(k5h]+J,~>
!HYCAki:=rK(?5Ls4Q*(kQ.f,J,~>
!HYCAki:=rK(?5Ls4Q*(kQ.f,J,~>
!HYCAkMt4qK(?5Ls4Q*(k5h]+J,~>
!HYCAki:=rK(?5Ls4Q*(kQ.f,J,~>
!HYCAki:=rK(?5Ls4Q*(kQ.f,J,~>
!HYCAkMt4qK(?5Ls4Q*(k5h]+J,~>
!HYCAki:=rK(?5Ls4Q*(kQ.f,J,~>
!HYCAki:=rK(?5Ls4Q*(kQ.f,J,~>
!HYCAkMt4qK(?5Ls4Q*(k5h]+J,~>
!HYCAki:=rK(?5Ls4Q*(kQ.f,J,~>
!HYCAki:=rK(?5Ls4Q*(kQ.f,J,~>
!HYCAkMt4qK(?5Ls4Q*(k5h]+J,~>
!HYCAki:=rK(?5Ls4Q*(kQ.f,J,~>
!HYCAki:=rK(?5Ls4Q*(kQ.f,J,~>
!HYCAkMt4qK(?5Ls4Q*(k5h]+J,~>
!HYCAki:=rK(?5Ls4Q*(kQ.f,J,~>
!HYCAki:=rK(?5Ls4Q*(kQ.f,J,~>
!HYCAkMt4qK(?5Ls4Q*(k5h]+J,~>
!HYCAki:=rK(?5Ls4Q*(kQ.f,J,~>
!HYCAki:=rK(?5Ls4Q*(kQ.f,J,~>
!HYCAkMt4qK(?5Ls4Q*(k5h]+J,~>
!HYCAki:=rK(?5Ls4Q*(kQ.f,J,~>
!HYCAki:=rK(?5Ls4Q*(kQ.f,J,~>
!HYCAkMt4qK(?5Ls4Q*(k5h]+J,~>
!HYCAki:=rK(?5Ls4Q*(kQ.f,J,~>
!HYCAki:=rK(?5Ls4Q*(kQ.f,J,~>
!HYCAkMt4qK(?5Ls4Q*(k5h]+J,~>
!HYCAki:=rK(?5Ls4Q*(kQ.f,J,~>
!HYCAki:=rK(?5Ls4Q*(kQ.f,J,~>
!HYCAkMt4qK(?5Ls4Q*(k5h]+J,~>
!HYCAki:=rK(?5Ls4Q*(kQ.f,J,~>
!HYCAki:=rK(?5Ls4Q*(kQ.f,J,~>
!HYCAkMt4qK(?5Ls4Q*(k5h]+J,~>
!HYCAki:=rK(?5Ls4Q*(kQ.f,J,~>
!HYCAki:=rK(?5Ls4Q*(kQ.f,J,~>
!HYCAkMt4qK(?5Ls4Q*(k5h]+J,~>
!HYCAki:=rK(?5Ls4Q*(kQ.f,J,~>
!HYCAki:=rK(?5Ls4Q*(kQ.f,J,~>
!HYCAkMt4qK(?5Ls4Q*(k5h]+J,~>
!HYCAki:=rK(8m@g&:+8X`K!~>
!HYCAki:=rK(8m@g&:+8X`K!~>
!HYCAkMt4qK(8m@g&:(7X`K!~>
!HYCAkg8#]kQ.f,J,~>
!HYCAkg8#]kQ.f,J,~>
!HYCAkKqo\k5h]+J,~>
!HYCAkg8#]kQ.f,J,~>
!HYCAkg8#]kQ.f,J,~>
!HYCAkKqo\k5h]+J,~>
!HYBakQ.f,J,~>
!HYBakQ.f,J,~>
!HYBak5h]+J,~>
!HY?`kQ.`*J,~>
!HY?`kQ.`*J,~>
!HY?`k5hW)J,~>
!HXLHkQ-ohJ,~>
!HXLHkQ-ohJ,~>
!HXIGk5gcfJ,~>
!crM,b3/oLF`W'~>
!crM,b3/oLF`W'~>
!crJ+b3&iKFE;s~>
"93FcRI.$HXmN+jR!*QNJ,~>
"93FcRI.$HXmN+jR!*QNJ,~>
"93FbRI.!GXmN(iR!!KMJ,~>
s8U/]s8RT~>
s8U/]s8RT~>
s8U/]s8RT~>
%%EndData
showpage
%%Trailer
end
%%EOF
